HPAStainR vs Single Cell Data
…
The chunk below does the following: + Reads in the McCall et al.gene clusters from the GTEx lung + Runs gene cluster A and gene cluster B through HPAStainR + Prints and saves results of each analysis

file_path <- "https://www.ncbi.nlm.nih.gov/pmc/articles/PMC5011060/bin/mmc3.xls"

temp = tempfile(fileext = ".xlsx")
download.file(file_path, destfile=temp, mode='wb')

lung_clust <- readxl::read_xls(temp)

supp_table_4 <- HPAStainR(lung_clust$`Cluster A`, hpa_dat = hpa_dat, cancer_dat = cancer_dat)
supp_table_5 <- HPAStainR(lung_clust$`Cluster B`, hpa_dat = hpa_dat, cancer_dat = cancer_dat)

supp_table_4

## # A tibble: 138 x 11
##    cell_type percent_high_ex~ percent_medium_~ percent_low_exp~ percent_not_det~
##    <chr>                <dbl>            <dbl>            <dbl>            <dbl>
##  1 LUNG - p~             0.2              0.1              0.1              0.6 
##  2 SMALL IN~             0.15             0.15             0.05             0.65
##  3 DUODENUM~             0.15             0.1              0.05             0.7 
##  4 STOMACH ~             0.15             0.07             0.1              0.68
##  5 KIDNEY -~             0.1              0.05             0.2              0.65
##  6 APPENDIX~             0.05             0.15             0.05             0.75
##  7 COLON - ~             0.05             0.1              0.15             0.7 
##  8 LUNG - m~             0.05             0.1              0.15             0.7 
##  9 RECTUM -~             0.05             0.1              0.15             0.7 
## 10 URINARY ~             0.05             0.1              0.15             0.7 
## # ... with 128 more rows, and 6 more variables: number_of_proteins <dbl>,
## #   tested_proteins <chr>, detected_proteins <chr>, staining_score <dbl>,
## #   p_val <chr>, p_val_adj <chr>

supp_table_5

## # A tibble: 138 x 11
##    cell_type percent_high_ex~ percent_medium_~ percent_low_exp~ percent_not_det~
##    <chr>                <dbl>            <dbl>            <dbl>            <dbl>
##  1 BRONCHUS~             0.55             0.33             0.06             0.06
##  2 FALLOPIA~             0.36             0.45             0.03             0.15
##  3 NASOPHAR~             0.33             0.36             0.06             0.18
##  4 ENDOMETR~             0.03             0.11             0.3              0.56
##  5 CERVIX, ~             0.09             0.06             0.12             0.67
##  6 GALLBLAD~             0.06             0.03             0.09             0.82
##  7 STOMACH ~             0.03             0.09             0.08             0.8 
##  8 COLON - ~             0.06             0.03             0.06             0.85
##  9 DUODENUM~             0.03             0.06             0.12             0.79
## 10 RECTUM -~             0.06             0.03             0.06             0.85
## # ... with 128 more rows, and 6 more variables: number_of_proteins <dbl>,
## #   tested_proteins <chr>, detected_proteins <chr>, staining_score <dbl>,
## #   p_val <chr>, p_val_adj <chr>
…
